{
  "sensors": [
    {
      "id": "1",
      "name": "Basic sensor",
      "description": "Use the basic sensor to supervise the basic filed conditions or conditions in halls. ",
      "coordinates": [14.214275, 50.381043]
    },
    {
      "id": "2",
      "name": "Weatherstation",
      "description": "Plan your agro acvities according to all meteorological conditions on one rod.",
      "coordinates": [14.217792, 50.371542]
    },
    {
      "id": "3",
      "name": "Storage hall sensor",
      "description": "Make sure your harvest is well stored inside your storage halls to avoid any pests and diseases threats.",
      "coordinates": [14.221525, 50.374929]
    },
    {
      "id": "4",
      "name": "Soil sensor",
      "description": "Check soil humidity and temperature to manage your irrigation effectively and save on cost.",
      "coordinates": [14.205785, 50.364011]
    }
  ]

}